^E:\SCHOOL WORK\YEAR 1 SEM 2\SEMESTER 2 ADVANCED PROGRAMMING\ASSIGNMENT2\PROJECT1\PROJECT1\GODS.CPP|E:\SCHOOL WORK\YEAR 1 SEM 2\SEMESTER 2 ADVANCED PROGRAMMING\ASSIGNMENT2\PROJECT1\PROJECT1\INVENTORY.CPP|E:\SCHOOL WORK\YEAR 1 SEM 2\SEMESTER 2 ADVANCED PROGRAMMING\ASSIGNMENT2\PROJECT1\PROJECT1\MAGICBOOK.CPP|E:\SCHOOL WORK\YEAR 1 SEM 2\SEMESTER 2 ADVANCED PROGRAMMING\ASSIGNMENT2\PROJECT1\PROJECT1\MAIN.CPP
E:\SCHOOL WORK\YEAR 1 SEM 2\SEMESTER 2 ADVANCED PROGRAMMING\ASSIGNMENT2\PROJECT1\PROJECT1\DEBUG\VC142.PDB
E:\SCHOOL WORK\YEAR 1 SEM 2\SEMESTER 2 ADVANCED PROGRAMMING\ASSIGNMENT2\PROJECT1\PROJECT1\DEBUG\VC142.IDB
E:\SCHOOL WORK\YEAR 1 SEM 2\SEMESTER 2 ADVANCED PROGRAMMING\ASSIGNMENT2\PROJECT1\PROJECT1\DEBUG\MAGICBOOK.OBJ
E:\SCHOOL WORK\YEAR 1 SEM 2\SEMESTER 2 ADVANCED PROGRAMMING\ASSIGNMENT2\PROJECT1\PROJECT1\DEBUG\GODS.OBJ
^E:\SCHOOL WORK\YEAR 1 SEM 2\SEMESTER 2 ADVANCED PROGRAMMING\ASSIGNMENT2\PROJECT1\PROJECT1\INVENTORY.CPP|E:\SCHOOL WORK\YEAR 1 SEM 2\SEMESTER 2 ADVANCED PROGRAMMING\ASSIGNMENT2\PROJECT1\PROJECT1\MAGICBOOK.CPP|E:\SCHOOL WORK\YEAR 1 SEM 2\SEMESTER 2 ADVANCED PROGRAMMING\ASSIGNMENT2\PROJECT1\PROJECT1\MAIN.CPP
E:\SCHOOL WORK\YEAR 1 SEM 2\SEMESTER 2 ADVANCED PROGRAMMING\ASSIGNMENT2\PROJECT1\PROJECT1\DEBUG\VC142.PDB
E:\SCHOOL WORK\YEAR 1 SEM 2\SEMESTER 2 ADVANCED PROGRAMMING\ASSIGNMENT2\PROJECT1\PROJECT1\DEBUG\VC142.IDB
E:\SCHOOL WORK\YEAR 1 SEM 2\SEMESTER 2 ADVANCED PROGRAMMING\ASSIGNMENT2\PROJECT1\PROJECT1\DEBUG\MAGICBOOK.OBJ
^E:\SCHOOL WORK\YEAR 1 SEM 2\SEMESTER 2 ADVANCED PROGRAMMING\ASSIGNMENT2\PROJECT1\PROJECT1\MAGICBOOK.CPP|E:\SCHOOL WORK\YEAR 1 SEM 2\SEMESTER 2 ADVANCED PROGRAMMING\ASSIGNMENT2\PROJECT1\PROJECT1\MAIN.CPP
E:\SCHOOL WORK\YEAR 1 SEM 2\SEMESTER 2 ADVANCED PROGRAMMING\ASSIGNMENT2\PROJECT1\PROJECT1\DEBUG\VC142.PDB
E:\SCHOOL WORK\YEAR 1 SEM 2\SEMESTER 2 ADVANCED PROGRAMMING\ASSIGNMENT2\PROJECT1\PROJECT1\DEBUG\VC142.IDB
E:\SCHOOL WORK\YEAR 1 SEM 2\SEMESTER 2 ADVANCED PROGRAMMING\ASSIGNMENT2\PROJECT1\PROJECT1\DEBUG\MAGICBOOK.OBJ
^E:\SCHOOL WORK\YEAR 1 SEM 2\SEMESTER 2 ADVANCED PROGRAMMING\ASSIGNMENT2\PROJECT1\PROJECT1\MAGICBOOK.CPP
E:\SCHOOL WORK\YEAR 1 SEM 2\SEMESTER 2 ADVANCED PROGRAMMING\ASSIGNMENT2\PROJECT1\PROJECT1\DEBUG\MAGICBOOK.OBJ
^E:\SCHOOL WORK\YEAR 1 SEM 2\SEMESTER 2 ADVANCED PROGRAMMING\ASSIGNMENT2\PROJECT1\PROJECT1\INVENTORY.CPP|E:\SCHOOL WORK\YEAR 1 SEM 2\SEMESTER 2 ADVANCED PROGRAMMING\ASSIGNMENT2\PROJECT1\PROJECT1\MAIN.CPP
E:\SCHOOL WORK\YEAR 1 SEM 2\SEMESTER 2 ADVANCED PROGRAMMING\ASSIGNMENT2\PROJECT1\PROJECT1\DEBUG\VC142.PDB
E:\SCHOOL WORK\YEAR 1 SEM 2\SEMESTER 2 ADVANCED PROGRAMMING\ASSIGNMENT2\PROJECT1\PROJECT1\DEBUG\VC142.IDB
E:\SCHOOL WORK\YEAR 1 SEM 2\SEMESTER 2 ADVANCED PROGRAMMING\ASSIGNMENT2\PROJECT1\PROJECT1\DEBUG\MAIN.OBJ
E:\SCHOOL WORK\YEAR 1 SEM 2\SEMESTER 2 ADVANCED PROGRAMMING\ASSIGNMENT2\PROJECT1\PROJECT1\DEBUG\INVENTORY.OBJ
^E:\SCHOOL WORK\YEAR 1 SEM 2\SEMESTER 2 ADVANCED PROGRAMMING\ASSIGNMENT2\PROJECT1\PROJECT1\INVENTORY.CPP
E:\SCHOOL WORK\YEAR 1 SEM 2\SEMESTER 2 ADVANCED PROGRAMMING\ASSIGNMENT2\PROJECT1\PROJECT1\DEBUG\VC142.PDB
^E:\SCHOOL WORK\YEAR 1 SEM 2\SEMESTER 2 ADVANCED PROGRAMMING\ASSIGNMENT2\PROJECT1\PROJECT1\GODS.CPP|E:\SCHOOL WORK\YEAR 1 SEM 2\SEMESTER 2 ADVANCED PROGRAMMING\ASSIGNMENT2\PROJECT1\PROJECT1\MAIN.CPP
E:\SCHOOL WORK\YEAR 1 SEM 2\SEMESTER 2 ADVANCED PROGRAMMING\ASSIGNMENT2\PROJECT1\PROJECT1\DEBUG\VC142.PDB
E:\SCHOOL WORK\YEAR 1 SEM 2\SEMESTER 2 ADVANCED PROGRAMMING\ASSIGNMENT2\PROJECT1\PROJECT1\DEBUG\VC142.IDB
E:\SCHOOL WORK\YEAR 1 SEM 2\SEMESTER 2 ADVANCED PROGRAMMING\ASSIGNMENT2\PROJECT1\PROJECT1\DEBUG\MAIN.OBJ
E:\SCHOOL WORK\YEAR 1 SEM 2\SEMESTER 2 ADVANCED PROGRAMMING\ASSIGNMENT2\PROJECT1\PROJECT1\DEBUG\GODS.OBJ
^E:\SCHOOL WORK\YEAR 1 SEM 2\SEMESTER 2 ADVANCED PROGRAMMING\ASSIGNMENT2\PROJECT1\PROJECT1\GODS.CPP
E:\SCHOOL WORK\YEAR 1 SEM 2\SEMESTER 2 ADVANCED PROGRAMMING\ASSIGNMENT2\PROJECT1\PROJECT1\DEBUG\VC142.PDB
^E:\SCHOOL WORK\YEAR 1 SEM 2\SEMESTER 2 ADVANCED PROGRAMMING\ASSIGNMENT2\PROJECT1\PROJECT1\MAIN.CPP
E:\SCHOOL WORK\YEAR 1 SEM 2\SEMESTER 2 ADVANCED PROGRAMMING\ASSIGNMENT2\PROJECT1\PROJECT1\DEBUG\VC142.PDB
E:\SCHOOL WORK\YEAR 1 SEM 2\SEMESTER 2 ADVANCED PROGRAMMING\ASSIGNMENT2\PROJECT1\PROJECT1\DEBUG\VC142.IDB
E:\SCHOOL WORK\YEAR 1 SEM 2\SEMESTER 2 ADVANCED PROGRAMMING\ASSIGNMENT2\PROJECT1\PROJECT1\DEBUG\MAIN.OBJ
