^E:\SCHOOL WORK\YEAR 1 SEM 2\SEMESTER 2 ADVANCED PROGRAMMING\ASSIGNMENT2\PROJECT1\PROJECT1\DEBUG\GODS.OBJ|E:\SCHOOL WORK\YEAR 1 SEM 2\SEMESTER 2 ADVANCED PROGRAMMING\ASSIGNMENT2\PROJECT1\PROJECT1\DEBUG\INVENTORY.OBJ|E:\SCHOOL WORK\YEAR 1 SEM 2\SEMESTER 2 ADVANCED PROGRAMMING\ASSIGNMENT2\PROJECT1\PROJECT1\DEBUG\MAGICBOOK.OBJ|E:\SCHOOL WORK\YEAR 1 SEM 2\SEMESTER 2 ADVANCED PROGRAMMING\ASSIGNMENT2\PROJECT1\PROJECT1\DEBUG\MAIN.OBJ
C:\PROGRAM FILES (X86)\WINDOWS KITS\10\LIB\10.0.17763.0\UM\X86\KERNEL32.LIB
C:\PROGRAM FILES (X86)\WINDOWS KITS\10\LIB\10.0.17763.0\UM\X86\USER32.LIB
C:\PROGRAM FILES (X86)\WINDOWS KITS\10\LIB\10.0.17763.0\UM\X86\GDI32.LIB
C:\PROGRAM FILES (X86)\WINDOWS KITS\10\LIB\10.0.17763.0\UM\X86\WINSPOOL.LIB
C:\PROGRAM FILES (X86)\WINDOWS KITS\10\LIB\10.0.17763.0\UM\X86\COMDLG32.LIB
C:\PROGRAM FILES (X86)\WINDOWS KITS\10\LIB\10.0.17763.0\UM\X86\ADVAPI32.LIB
C:\PROGRAM FILES (X86)\WINDOWS KITS\10\LIB\10.0.17763.0\UM\X86\SHELL32.LIB
C:\PROGRAM FILES (X86)\WINDOWS KITS\10\LIB\10.0.17763.0\UM\X86\OLE32.LIB
C:\PROGRAM FILES (X86)\WINDOWS KITS\10\LIB\10.0.17763.0\UM\X86\OLEAUT32.LIB
C:\PROGRAM FILES (X86)\WINDOWS KITS\10\LIB\10.0.17763.0\UM\X86\UUID.LIB
C:\PROGRAM FILES (X86)\WINDOWS KITS\10\LIB\10.0.17763.0\UM\X86\ODBC32.LIB
C:\PROGRAM FILES (X86)\WINDOWS KITS\10\LIB\10.0.17763.0\UM\X86\ODBCCP32.LIB
E:\SCHOOL WORK\YEAR 1 SEM 2\SEMESTER 2 ADVANCED PROGRAMMING\ASSIGNMENT2\PROJECT1\PROJECT1\DEBUG\GODS.OBJ
E:\SCHOOL WORK\YEAR 1 SEM 2\SEMESTER 2 ADVANCED PROGRAMMING\ASSIGNMENT2\PROJECT1\PROJECT1\DEBUG\INVENTORY.OBJ
E:\SCHOOL WORK\YEAR 1 SEM 2\SEMESTER 2 ADVANCED PROGRAMMING\ASSIGNMENT2\PROJECT1\PROJECT1\DEBUG\MAGICBOOK.OBJ
E:\SCHOOL WORK\YEAR 1 SEM 2\SEMESTER 2 ADVANCED PROGRAMMING\ASSIGNMENT2\PROJECT1\PROJECT1\DEBUG\MAIN.OBJ
C:\WINDOWS\SYSTEM32\TZRES.DLL
C:\WINDOWS\GLOBALIZATION\SORTING\SORTDEFAULT.NLS
C:\PROGRAM FILES (X86)\MICROSOFT VISUAL STUDIO\2019\COMMUNITY\VC\TOOLS\MSVC\14.21.27702\LIB\X86\MSVCPRTD.LIB
C:\PROGRAM FILES (X86)\MICROSOFT VISUAL STUDIO\2019\COMMUNITY\VC\TOOLS\MSVC\14.21.27702\LIB\X86\MSVCRTD.LIB
C:\PROGRAM FILES (X86)\MICROSOFT VISUAL STUDIO\2019\COMMUNITY\VC\TOOLS\MSVC\14.21.27702\LIB\X86\OLDNAMES.LIB
C:\PROGRAM FILES (X86)\MICROSOFT VISUAL STUDIO\2019\COMMUNITY\VC\TOOLS\MSVC\14.21.27702\LIB\X86\VCRUNTIMED.LIB
C:\PROGRAM FILES (X86)\WINDOWS KITS\10\LIB\10.0.17763.0\UCRT\X86\UCRTD.LIB
